Ubisoft zrušil čtyři připravované hry;Ve stejný den, kdy Ubisoft odložil Avatar: Frontiers of Pandora a “menší” prémiovou hru, vydavatel také potvrdil, že zrušil čtyři hry. Patří mezi ně titul Splinter Cell VR a Ghost Recon: Frontline a dva neoznámené tituly, které Ubisoft nezveřejnil. Zatímco hra Splinter Cell VR byla zrušena, fanoušci série se dočkají remaku původní hry. Co se týče hry Ghost Recon: Frontline, jednalo se o free-to-play battle royale hru. O dalších dvou neoznámených hrách můžeme jen diskutovat. Ubisoft neuvedl důvod zrušení těchto čtyř titulů. Vývoj her je vysoce náročný proces a hry se ruší neustále, i když o nich nikdy neuslyšíme. Například společnost Blizzard ruší přibližně 50% her, které začne vyvíjet. Ubisoft sice zrušil čtyři hry a dvě další odložil, ale společnost má v plánu řadu velkých projektů, včetně Mario + Rabbids: Sparks of Hope a Skull and Bones. V září Ubisoft odhalí "budoucnost Assassin's Creed" a mnozí se domnívají, že se to týká údajně nové hry Assassin's Creed s Basim z Valhaly.
Atomic Heart má nový trailer a vypadá fantasticky;Atomic Heart dostalo během akce Gamescom nový trailer, který je zaměřený na souboje a akci. Atomic Heart je první hra Moskevského studia Mundfish. Je to akční RPG zasazené do alternativní verze sovětského svazu v roce 1950 se spoustou vyspělých robotů, kteří se obrátili proti lidstvu. Na začátku traileru se pár robotů spojí v podivném tanci během kterého jednomu z robotů z hlavy vyjdou chapadla, které se spojí do ostrého objektu a robot pomalu zaboří objekt do bčicha toho druhého. Naštěstí Atomic Heart vypadá, že nabízí mnohem více než jen podivné tanečky robotů: dystopické prostředí vypadá jako kombinace her BioShock, Fallout nebo S.T.A.L.K.E.R.. Je opravdu uspokojové vidět v akci led, vody a další podivné kombinace elementů při soubojích.
Dead Island 2 stále žije a máme první gameplay;Únik, který se objevil před několika dny se zdá pravdivý a na akci Opening Night Live bylo znovu představené pokračování zombie RPG Dead Island.Během této akce bylo potvrzeno, že se druhý díl bude odehrávat v Los Angeles a celý titul se má přibližovat béčkovým horrorům – takže se můžeme těšit na hloupý humor, podivnou a zábavnou akci a situace. Na začátku hry si budete moct vybrat ze 6 postav (každá má svoji osobnost a hlášky) a bude pouze na vás, jak zombies budete zabíjet. Celý titul je zaměřen na souboje na blízko ale pár střelných zbraní se zde také objeví. Podle traileru a gameplay ukázky to vypadá, že brutálních fatalit tady bude opravdu spoustu a krve se zde nešetří. Jako v předchozích dílech – ani zde nebude chybět kooperace a to až pro 3 další hráče. Hra vyjde 28. dubna pro PC, PlayStation 4, PlayStation 5, Xbox One a Xbox Series S/X. Hra už je nyní dostupná v předobjednávce, ale bohužel se pro PC hráče zatím jedná o exkluzivitu pro platformu Epic. Hra má podle dostupných informací podporovat i češtinu.
Star Wars Jedi: Survivor se objevil na Steamu;Star Wars Jedi: Survivor se nečekaně objevilo na Steamu, jedná se o sequel velmi úspěšné hry z roku 2019. Hra by měla vyjít “brzy”. Již nyní si ji můžete dát na Steamu do seznamu přání. Pokračování se odehrává 5 let po událostech z předchozího dílu. Cal musí zůstat jeden krok napřed před neustálým pronásledováním Impéria, protože je jedním z posledních Jediů v galaxii. Ohledně požadavků na hardware víme jen to, že je potřeba 64-bit procesor a operační systém. Podle nedávných úniků ze společnosti Sony se hra chystá na březnové vydání pro PlayStation. Ale vzhledem k tomu, že předchozí díl Fallen Order vyšel současně na PC i konzole, můžeme to očekávat i zde. UPD. Hra vyjde 23. března pro PC, PlayStation 4, PlayStation 5, Xbox One a Xbox Series S/X.